<?xml version="1.0" encoding="UTF-8" standalone="no" ?>
<!DOCTYPE svg PUBLIC "-//W3C//DTD SVG 1.1//EN" "http://www.w3.org/Graphics/SVG/1.1/DTD/svg11.dtd">
<svg xmlns="http://www.w3.org/2000/svg" xmlns:xlink="http://www.w3.org/1999/xlink" version="1.1" width="1080" height="1080" viewBox="0 0 1080 1080" xml:space="preserve">
<desc>Created with Fabric.js 5.2.4</desc>
<defs>
</defs>
<rect x="0" y="0" width="100%" height="100%" fill="transparent"></rect>
<g transform="matrix(1 0 0 1 540 540)" id="d05518b2-9343-4f62-b47e-cffb871b2649"  >
<rect style="stroke: none; stroke-width: 1; stroke-dasharray: none; stroke-linecap: butt; stroke-dashoffset: 0; stroke-linejoin: miter; stroke-miterlimit: 4; fill: rgb(255,255,255); fill-rule: nonzero; opacity: 1; visibility: hidden;" vector-effect="non-scaling-stroke"  x="-540" y="-540" rx="0" ry="0" width="1080" height="1080" />
</g>
<g transform="matrix(1 0 0 1 540 540)" id="e5b3d039-9146-419b-a178-d2a5f5d36d0c"  >
</g>
<g transform="matrix(36.95 0 0 37.97 540 562.03)" id="image-picture"  >
<path style="stroke: none; stroke-width: 1; stroke-dasharray: none; stroke-linecap: butt; stroke-dashoffset: 0; stroke-linejoin: miter; stroke-miterlimit: 4; fill: rgb(212,212,212); fill-rule: evenodd; opacity: 1;"  transform=" translate(-378, -117)" d="M 392 129 C 392 130.104 391.104 131 390 131 L 384.832 131 L 377.464 123.535 L 386 114.999 L 392 120.999 L 392 129 L 392 129 Z M 366 131 C 364.896 131 364 130.104 364 129 L 364 128.061 L 371.945 120.945 L 382.001 131 L 366 131 L 366 131 Z M 370 105 C 372.209 105 374 106.791 374 109 C 374 111.209 372.209 113 370 113 C 367.791 113 366 111.209 366 109 C 366 106.791 367.791 105 370 105 L 370 105 Z M 390 101 L 366 101 C 363.791 101 362 102.791 362 105 L 362 129 C 362 131.209 363.791 133 366 133 L 390 133 C 392.209 133 394 131.209 394 129 L 394 105 C 394 102.791 392.209 101 390 101 L 390 101 Z M 370 111 C 371.104 111 372 110.104 372 109 C 372 107.896 371.104 107 370 107 C 368.896 107 368 107.896 368 109 C 368 110.104 368.896 111 370 111 L 370 111 Z" stroke-linecap="round" />
</g>
</svg>