<svg width="16" height="16" viewBox="0 0 16 16" fill="none" xmlns="http://www.w3.org/2000/svg">
<path d="M7.99984 0.666992C3.94909 0.666992 0.666504 3.95049 0.666504 8.00033C0.666504 12.0502 3.94909 15.3337 7.99984 15.3337C12.0506 15.3337 15.3332 12.0502 15.3332 8.00033C15.3332 3.95049 12.0506 0.666992 7.99984 0.666992ZM11.3979 10.1022C11.5698 10.2741 11.6664 10.5072 11.6664 10.7503C11.6664 10.9934 11.5698 11.2265 11.3979 11.3984C11.226 11.5703 10.9929 11.6669 10.7498 11.6669C10.5068 11.6669 10.2736 11.5703 10.1018 11.3984L7.99984 9.29649L5.89792 11.3984C5.81299 11.4838 5.71201 11.5516 5.60079 11.5979C5.48956 11.6441 5.37029 11.6679 5.24984 11.6679C5.12938 11.6679 5.01011 11.6441 4.89889 11.5979C4.78767 11.5516 4.68669 11.4838 4.60175 11.3984C4.51655 11.3134 4.44896 11.2123 4.40284 11.1011C4.35672 10.9899 4.33299 10.8707 4.33299 10.7503C4.33299 10.6299 4.35672 10.5107 4.40284 10.3995C4.44896 10.2883 4.51655 10.1873 4.60175 10.1022L6.70367 8.00033L4.60175 5.89841C4.42987 5.72653 4.33331 5.4934 4.33331 5.25033C4.33331 5.00725 4.42987 4.77413 4.60175 4.60224C4.77364 4.43036 5.00676 4.3338 5.24984 4.3338C5.49292 4.3338 5.72604 4.43036 5.89792 4.60224L7.99984 6.70416L10.1018 4.60224C10.2736 4.43036 10.5068 4.3338 10.7498 4.3338C10.9929 4.3338 11.226 4.43036 11.3979 4.60224C11.5698 4.77413 11.6664 5.00725 11.6664 5.25033C11.6664 5.4934 11.5698 5.72653 11.3979 5.89841L9.296 8.00033L11.3979 10.1022Z" fill="black" fill-opacity="0.6"/>
</svg>
