<svg width="6" height="8" viewBox="0 0 6 8" fill="none" xmlns="http://www.w3.org/2000/svg">
<path d="M0.845659 7.29555C0.899581 7.32359 0.960123 7.33643 1.02079 7.33267C1.08145 7.32891 1.13994 7.3087 1.18999 7.27421L5.52333 4.27421C5.56761 4.24354 5.60379 4.20258 5.62878 4.15487C5.65377 4.10715 5.66683 4.05408 5.66683 4.00021C5.66683 3.94635 5.65377 3.89328 5.62878 3.84556C5.60379 3.79784 5.56761 3.75689 5.52333 3.72621L1.18999 0.726213C1.13998 0.691611 1.08146 0.671348 1.02076 0.667619C0.960065 0.663891 0.899503 0.676838 0.845635 0.70506C0.791768 0.733281 0.746647 0.775701 0.715158 0.827726C0.683669 0.879752 0.667013 0.9394 0.666992 1.00021V7.00021C0.666982 7.06106 0.683627 7.12075 0.715121 7.17281C0.746616 7.22487 0.79176 7.26731 0.845659 7.29555Z" fill="black" fill-opacity="0.55"/>
</svg>
