<svg width="17" height="17" viewBox="0 0 17 17" fill="none" xmlns="http://www.w3.org/2000/svg">
<path d="M16.1582 14.688C15.6493 14.2343 15.2037 13.7142 14.8335 13.1416C14.4293 12.3513 14.1871 11.4882 14.121 10.603V7.9958C14.1188 7.6791 14.0906 7.36313 14.0365 7.05107C13.6211 6.96804 13.2219 6.81832 12.8543 6.60774C12.9944 7.05891 13.0656 7.52865 13.0654 8.00107V10.6083C13.1301 11.6881 13.4271 12.7413 13.9362 13.6958C14.3006 14.2732 14.733 14.8048 15.224 15.2791H1.70764C2.19869 14.8048 2.63104 14.2732 2.99542 13.6958C3.50452 12.7413 3.80156 11.6881 3.86625 10.6083V7.9958C3.86347 7.38499 3.98121 6.77964 4.21271 6.2144C4.44421 5.64916 4.78493 5.13513 5.21537 4.70176C5.6458 4.26838 6.15749 3.92416 6.72114 3.68882C7.28479 3.45347 7.88933 3.33162 8.50014 3.33024C9.39407 3.33096 10.2679 3.59532 11.0124 4.09024C10.9303 3.78887 10.8842 3.47884 10.8751 3.16663V2.83413C10.3241 2.56304 9.73204 2.38472 9.12292 2.30635V1.64135C9.12292 1.45448 9.04869 1.27527 8.91655 1.14314C8.78442 1.011 8.6052 0.936768 8.41833 0.936768C8.23147 0.936768 8.05225 1.011 7.92012 1.14314C7.78798 1.27527 7.71375 1.45448 7.71375 1.64135V2.33274C6.34982 2.52514 5.10155 3.20449 4.1994 4.24537C3.29724 5.28625 2.80211 6.61837 2.80542 7.9958V10.603C2.73932 11.4882 2.49708 12.3513 2.09292 13.1416C1.72922 13.7129 1.2908 14.2329 0.789308 14.688C0.73301 14.7375 0.687891 14.7984 0.65695 14.8666C0.62601 14.9349 0.609958 15.0089 0.609863 15.0839V15.8016C0.609863 15.9416 0.665468 16.0758 0.764446 16.1748C0.863423 16.2738 0.997666 16.3294 1.13764 16.3294H15.8099C15.9498 16.3294 16.0841 16.2738 16.1831 16.1748C16.282 16.0758 16.3376 15.9416 16.3376 15.8016V15.0839C16.3375 15.0089 16.3215 14.9349 16.2906 14.8666C16.2596 14.7984 16.2145 14.7375 16.1582 14.688Z" fill="black" fill-opacity="0.6"/>
</svg>
